Chr	Start	End	TE Name	Count	Strand	Length on chr	Indicator	Gene ID	Gene Biotype	chrystalRate.non_chimeric.fl.tsv
chrUn_JAAHUQ010002381v1	2368	7026	LSU-rRNA_Hsa	2	*	4226.5	1	LOC119873143	pseudogene	2
chrUn_JAAHUQ010001105v1	2722	7225	LSU-rRNA_Hsa	2	*	3992.0	1	LOC119878422	rRNA	2
chrUn_JAAHUQ010000903v1	13632	18355	LSU-rRNA_Hsa	2	*	4517.5	1	LOC119878322	rRNA	2
chrUn_JAAHUQ010000789v1	8919	13578	LSU-rRNA_Hsa	2	*	4260.5	1	LOC119878274	rRNA	2
chrX	26050050	26050494	SINEC2A1_CF	1	*	228.0	2	None	None	1
chrUn_JAAHUQ010002266v1	5815	7478	SSU-rRNA_Hsa	1	*	1632.0	1	LOC119879275	rRNA	1
chrUn_JAAHUQ010002266v1	11295	15527	LSU-rRNA_Hsa	1	*	3636.0	1	LOC119879273	rRNA	1
chrUn_JAAHUQ010001236v1	68350	71159	CfERV1	1	*	2653.0	1	LOC119878513	lncRNA	1
chrUn_JAAHUQ010000880v1	12460	14303	SSU-rRNA_Hsa	1	*	1793.0	1	LOC119878309	rRNA	1
chrUn_JAAHUQ010000868v1	2551	7260	LSU-rRNA_Hsa	1	*	4426.0	1	LOC119878305	rRNA	1
chrUn_JAAHUQ010000836v1	9649	14303	LSU-rRNA_Hsa	1	*	4328.0	1	LOC119878299	rRNA	1
chrUn_JAAHUQ010000730v1	15788	17635	SSU-rRNA_Hsa	1	*	1786.0	1	LOC119878256	rRNA	1
chr9	38217189	38217659	SINEC2A1_CF	1	*	226.0	3	RAD51D	protein_coding	1
chr9	19735196	19746786	SINEC2A1_CF	1	*	620.0	6	LOC119876639	lncRNA	1
chr6	33665084	33667125	Tigger2f	1	*	1919.0	1	TMEM186	protein_coding	1
chr5	29791853	29794668	L1_Carn2_orf2	1	*	2763.0	1	CEP126	protein_coding	1
chr4	51222725	51224606	Charlie11	1	*	1851.0	1	ZBED8	protein_coding	1
chr4	51219302	51224606	Charlie11	1	*	1914.0	1	ZBED8	protein_coding	1
chr30	1203503	1203793	SINEC2A1_CF	1	*	271.0	2	None	None	1
chr29	41084832	41085274	SINEC2A1_CF	1	*	224.0	3	None	None	1
chr1	122689364	122689658	SINEC2A1_CF	1	*	187.0	2	POP4	protein_coding	1
