Chr	Start	End	TE Name	Count	Strand	Length on chr	Indicator	Gene ID	Gene Biotype	cml10.non_chimeric.fl.tsv
chrUn_JAAHUQ010000836v1	9570	14318	LSU-rRNA_Hsa	10	*	4264.1	1	LOC119878299	rRNA	10
chrUn_JAAHUQ010001105v1	2709	7458	LSU-rRNA_Hsa	8	*	3738.25	1	LOC119878422	rRNA	8
chrUn_JAAHUQ010000868v1	2551	7286	LSU-rRNA_Hsa	8	*	3940.0	1	LOC119878305	rRNA	8
chrUn_JAAHUQ010002266v1	10793	15529	LSU-rRNA_Hsa	7	*	4233.857142857143	1	LOC119879273	rRNA	7
chrUn_JAAHUQ010000903v1	13632	18355	LSU-rRNA_Hsa	7	*	3735.714285714286	1	LOC119878322	rRNA	7
chrUn_JAAHUQ010002381v1	2302	7038	LSU-rRNA_Hsa	5	*	4375.0	1	LOC119873143	pseudogene	5
chrUn_JAAHUQ010000644v1	11588	16323	LSU-rRNA_Hsa	5	*	4290.2	1	LOC119878212	rRNA	5
chrUn_JAAHUQ010000903v1	8645	10492	SSU-rRNA_Hsa	4	*	1677.5	1	LOC119878321	rRNA	4
chrUn_JAAHUQ010000730v1	15823	17656	SSU-rRNA_Hsa	4	*	1650.5	1	LOC119878256	rRNA	4
chrUn_JAAHUQ010002733v1	21397	23266	SSU-rRNA_Hsa	3	*	1728.6666666666667	1	LOC119879510	rRNA	3
chrUn_JAAHUQ010002266v1	5815	7658	SSU-rRNA_Hsa	3	*	1709.6666666666667	1	LOC119879275	rRNA	3
chrUn_JAAHUQ010001105v1	10597	12440	SSU-rRNA_Hsa	3	*	1763.3333333333333	1	LOC119878421	rRNA	3
chrUn_JAAHUQ010000917v1	424	2266	SSU-rRNA_Hsa	3	*	1736.6666666666667	1	LOC119878329	rRNA	3
chrUn_JAAHUQ010000836v1	17446	19297	SSU-rRNA_Hsa	3	*	1784.6666666666667	1	LOC119878298	rRNA	3
chrUn_JAAHUQ010000789v1	8960	13578	LSU-rRNA_Hsa	3	*	3762.6666666666665	1	LOC119878274	rRNA	3
chr17	65081338	65086055	LSU-rRNA_Hsa	3	*	2199.0	1	LOC119877202	rRNA	3
chrUn_JAAHUQ010002381v1	10169	12016	SSU-rRNA_Hsa	2	*	1766.5	1	LOC119879332	rRNA	2
chrUn_JAAHUQ010000982v1	10239	12082	SSU-rRNA_Hsa	2	*	1748.0	1	LOC119878346	rRNA	2
chrUn_JAAHUQ010000917v1	5399	10071	LSU-rRNA_Hsa	2	*	4206.0	1	LOC119878330	rRNA	2
chrUn_JAAHUQ010000880v1	12460	14329	SSU-rRNA_Hsa	2	*	1697.0	1	LOC119878309	rRNA	2
chr6	33665060	33667125	Tigger2f	2	*	2013.5	1	TMEM186	protein_coding	2
chrUn_JAAHUQ010000868v1	2794	4335	LSU-rRNA_Hsa	1	*	1511.0	1	LOC119878305	rRNA	1
chrUn_JAAHUQ010000644v1	19454	21199	SSU-rRNA_Hsa	1	*	1727.0	1	LOC119878211	rRNA	1
chr9	57740291	57740796	SINEC2A1_CF	1	*	212.0	2	MAPKAP1	protein_coding	1
chr9	34149693	34150062	L1_CF	1	*	355.0	2	None	None	1
chr9	34148559	34150147	L1_CF	1	*	985.0	2	CLTC	protein_coding	1
chr9	32482461	32482896	SINEC2A1_CF	1	*	404.0	3	None	None	1
chr9	25298619	25299230	SINEC2A1_CF	1	*	594.0	1	None	None	1
chr8	855987	856154	SINEC2A1_CF	1	*	166.0	1	None	None	1
chr6	41074198	41076738	L1-Y_CF	1	*	2488.0	1	None	None	1
chr5	65602384	65602813	SINEC2A1_CF	1	*	144.0	2	None	None	1
chr5	32501564	32501971	SINEC2A1_CF	1	*	383.0	2	ACAP1	protein_coding	1
chr5	31556688	31556853	SINEC2A1_CF	1	*	173.0	2	DHX33	protein_coding	1
chr4	85528314	85529549	L1_CF	1	*	1183.0	2	CDH18	protein_coding	1
chr4	15000168	15000784	SINEC1B2_CF	1	*	337.0	3	None	None	1
chr38	9220895	9221112	SINEC2A1_CF	1	*	194.0	2	None	None	1
chr3	73006252	73007616	SINEC2A1_CF	1	*	1326.0	3	N4BP2	protein_coding	1
chr36	16859796	16860864	SINEC1B2_CF	1	*	1031.0	1	None	None	1
chr35	13264142	13264325	SINEC2A1_CF	1	*	178.0	1	None	None	1
chr30	29760535	29760688	SINEC1B1_CF	1	*	152.0	1	ANKDD1A	protein_coding	1
chr28	13297679	13297888	SINEC2A1_CF	1	*	186.0	1	None	None	1
chr27	42895243	42896194	SINEC2A1_CF	1	*	399.0	6	CSRNP2	protein_coding	1
chr27	36207333	36208229	SINEC2A1_CF	1	*	350.0	6	PUS7L	protein_coding	1
chr24	30603778	30604210	L1_Carn2_5end	1	*	429.0	1	LOC119865668	misc_RNA	1
chr24	23941077	23941374	SINEC2A1_CF	1	*	280.0	3	None	None	1
chr24	17994907	17995918	SINEC2A1_CF	1	*	305.0	2	AP5S1	protein_coding	1
chr21	40420549	40420942	SINEC2A1_CF	1	*	367.0	1	PIK3C2A	protein_coding	1
chr20	559577	559812	SINEC2A1_CF	1	*	210.0	3	None	None	1
chr20	12169452	12175577	L1-Y_CF	1	*	5881.0	1	LOC119864639	lncRNA	1
chr1	93995817	93997107	SINEC2A1_CF	1	*	466.0	6	JAK2	protein_coding	1
chr19	21733164	21739226	L1-Y_CF	1	*	5521.0	1	None	None	1
chr18	36904218	36904390	SINEC2A1_CF	1	*	172.0	1	DCDC1	protein_coding	1
chr16	8377137	8377457	SINEC1_CF	1	*	315.0	1	SLC37A3	protein_coding	1
chr1	45429058	45431140	SINEC1A_CF	1	*	1888.0	6	TIAM2	protein_coding	1
chr14	52586398	52586932	SINEC2A1_CF	1	*	262.0	2	None	None	1
chr13	31505617	31506211	SINEC2A1_CF	1	*	408.0	3	None	None	1
chr13	20082428	20088388	L1-Y_CF	1	*	5527.0	1	LOC100687902	pseudogene	1
chr12	37160012	37160484	SINEC2A1_CF	1	*	289.0	3	LOC111098320	lncRNA	1
chr1	116801822	116802797	SINEC2A1_CF	1	*	942.0	2	LOC484559	protein_coding	1
chr1	105099876	105101283	SINEC2A1_CF	1	*	1259.0	3	LOC119875995	protein_coding	1
chr10	70102269	70102439	SINEC2A1_CF	1	*	167.0	1	None	None	1
chr10	611816	612644	SINEC2A1_CF	1	*	810.0	3	PYM1	protein_coding	1
