Chr	Start	End	TE Name	Count	Strand	Length on chr	Indicator	Gene ID	Gene Biotype	emir.non_chimeric.fl.tsv
chr1	99903860	99904256	CfERVF1_LTR	4	*	362.75	1	LOC106559551	lncRNA	4
chr36	15602364	15602801	CfERVF1_LTR	3	*	407.0	1	None	None	3
chr6	24272461	24293741	L1-Y_CF	2	*	592.5	1	LOC489979	protein_coding	2
chr3	82781972	82782381	CfERVF1_LTR	2	*	372.0	1	None	None	2
chr29	22445095	22445442	CfERVF1_LTR	2	*	325.0	1	None	None	2
chrX	57764771	57764957	SINEC2A1_CF	1	*	159.0	3	None	None	1
chrX	56976699	56976870	SINEC2A1_CF	1	*	146.0	3	None	None	1
chrUn_JAAHUQ010002383v1	9942	10104	SINEC2A1_CF	1	*	154.0	1	None	None	1
chrUn_JAAHUQ010002205v1	31128	31306	SINEC2A1_CF	1	*	170.0	1	None	None	1
chrUn_JAAHUQ010001875v1	1717	1892	SINEC2A1_CF	1	*	151.0	6	None	None	1
chrUn_JAAHUQ010000836v1	17446	19302	SSU-rRNA_Hsa	1	*	1769.0	1	LOC119878298	rRNA	1
chrUn_JAAHUQ010000654v1	14309	14479	SINEC2A1_CF	1	*	151.0	1	None	None	1
chr8	34553022	34553196	SINEC2A1_CF	1	*	162.0	3	LOC102157168	lncRNA	1
chr7	80878406	80878562	SINEC1B2_CF	1	*	150.0	1	MAPK4	protein_coding	1
chr6	48375058	48375411	CfERVF1_LTR	1	*	335.0	1	None	None	1
chr6	41012083	41012252	SINEC2A1_CF	1	*	159.0	1	None	None	1
chr37	25467212	25467402	SINEC2A1_CF	1	*	183.0	1	CFAP65	protein_coding	1
chr36	21298350	21298771	CfERV1a_LTR	1	*	400.0	1	LOC610165	protein_coding	1
chr36	21220549	21220727	SINEC2A1_CF	1	*	165.0	3	LOC111094274	lncRNA	1
chr3	33318452	33318631	SINEC2A1_CF	1	*	151.0	2	GABRG3	protein_coding	1
chr29	23205953	23206124	SINEC2A1_CF	1	*	159.0	3	JPH1	protein_coding	1
chr25	17376555	17377505	SINEC2A1_CF	1	*	140.0	3	XPO4	protein_coding	1
chr2	47756396	47756823	CarERV4a_LTR	1	*	420.0	1	LOC119871109	lncRNA	1
chr23	28133068	28133245	SINEC2A1_CF	1	*	162.0	1	COL6A5	protein_coding	1
chr20	56679171	56679576	MER101B_CF	1	*	394.0	1	LOC119864785	lncRNA	1
chr19	33037686	33038084	CfERVF1_LTR	1	*	362.0	1	LOC102151514	lncRNA	1
chr18	30491984	30492161	SINEC2A1_CF	1	*	170.0	1	None	None	1
chr17	9766010	9766416	CfERVF1_LTR	1	*	368.0	1	None	None	1
chr15	58674186	58674361	SINEC2A1_CF	1	*	160.0	1	FSTL5	protein_coding	1
chr15	4081380	4081731	CfERVF1_LTR	1	*	333.0	1	LOC102151386	lncRNA	1
chr15	2491436	2491622	SINEC2A1_CF	1	*	170.0	2	None	None	1
chr14	6337499	6337670	SINEC2A1_CF	1	*	158.0	1	None	None	1
chr12	58116605	58116789	SINEC2A1_CF	1	*	170.0	2	None	None	1
chr11	72351157	72351561	CfERVF1_LTR	1	*	384.0	1	None	None	1
chr11	6794522	6794701	SINEC2A1_CF	1	*	173.0	1	None	None	1
chr11	12653857	12654220	CfERVF1_LTR	1	*	339.0	1	LOC111097969	protein_coding	1
chr11	10618650	10619039	CfERVF1_LTR	1	*	334.0	1	None	None	1
chr10	53668523	53668692	SINEC2A1_CF	1	*	157.0	1	NRXN1	protein_coding	1
chr10	16272862	16273266	CfERVF1_LTR	1	*	385.0	1	GLIPR1L1	protein_coding	1
