Chr	Start	End	TE Name	Count	Strand	Length on chr	Indicator	Gene ID	Gene Biotype	vico.non_chimeric.fl.tsv
chrUn_JAAHUQ010000903v1	13620	18356	LSU-rRNA_Hsa	6	*	4151.666666666667	1	LOC119878322	rRNA	6
chrUn_JAAHUQ010000644v1	11654	16323	LSU-rRNA_Hsa	5	*	4215.2	1	LOC119878212	rRNA	5
chrUn_JAAHUQ010002266v1	10819	15463	LSU-rRNA_Hsa	3	*	4473.666666666667	1	LOC119879273	rRNA	3
chrUn_JAAHUQ010000868v1	2540	7274	LSU-rRNA_Hsa	3	*	4163.0	1	LOC119878305	rRNA	3
chrUn_JAAHUQ010000836v1	9570	14318	LSU-rRNA_Hsa	3	*	4218.666666666667	1	LOC119878299	rRNA	3
chrX	123311397	123317535	SINEC2A1_CF	1	*	1123.0	2	LOC119868254	lncRNA	1
chrUn_JAAHUQ010002381v1	2302	7012	LSU-rRNA_Hsa	1	*	4537.0	1	LOC119873143	pseudogene	1
chrUn_JAAHUQ010000789v1	3893	5736	SSU-rRNA_Hsa	1	*	1819.0	1	LOC119878273	rRNA	1
chr9	2453633	2455925	SINEC1B2_CF	1	*	1720.0	3	EIF4A3	protein_coding	1
chr6	41074198	41076723	L1-Y_CF	1	*	2482.0	1	None	None	1
chr6	40166835	40167108	SINEC2A1_CF	1	*	156.0	2	LMF1	protein_coding	1
chr6	33665060	33667125	Tigger2f	1	*	2018.0	1	TMEM186	protein_coding	1
chr33	30438013	30438249	SINEC2A1_CF	1	*	231.0	1	CEP19	protein_coding	1
chr26	5256174	5257465	SINEC1A_CF	1	*	1099.0	1	None	None	1
chr24	5312592	5313594	SINEC2A1_CF	1	*	240.0	3	None	None	1
chr24	23126386	23128205	SINEC2A1_CF	1	*	881.0	6	CDK5RAP1	protein_coding	1
chr20	39698689	39702455	L1_Carn2_orf2	1	*	3149.0	1	RBM6	protein_coding	1
chr17	35902842	35903101	SINEC2A1_CF	1	*	229.0	3	None	None	1
chr15	9695779	9697562	SINEC2A1_CF	1	*	1623.0	6	OSBPL9	protein_coding	1
chr15	723545	724586	SINEC2A1_CF	1	*	923.0	3	YBX1	protein_coding	1
chr15	34374000	34374195	SINEC1A_CF	1	*	186.0	1	LOC111098902	lncRNA	1
chr1	113669161	113669447	SINEC2A1_CF	1	*	173.0	2	None	None	1
