Count	TE	Filter	Dog
178	SINEC2A1_CF	non_chimeric.fl	aston
9	CfERVF1_LTR	non_chimeric.fl	aston
3	CfERV1a_LTR	non_chimeric.fl	aston
2	SSU-rRNA_Hsa	non_chimeric.fl	aston
2	L1MB7	non_chimeric.fl	aston
1	SINEC2A2_CF	non_chimeric.fl	aston
1	SINEC1B2_CF	non_chimeric.fl	aston
1	SINEC1B1_CF	non_chimeric.fl	aston
1	L1-Y_CF	non_chimeric.fl	aston
1	L1_Carn5_3end	non_chimeric.fl	aston
1	CarLTR8b	non_chimeric.fl	aston
2880	SINEC2A1_CF	chimeric.fl	aston
564	SINEC1A_CF	chimeric.fl	aston
493	SINEC1_CF	chimeric.fl	aston
465	SINEC1B2_CF	chimeric.fl	aston
460	SINEC2A2_CF	chimeric.fl	aston
265	SINEC1C1_CF	chimeric.fl	aston
205	SINEC1B1_CF	chimeric.fl	aston
67	CfERVF1_LTR	chimeric.fl	aston
56	SINEC1C2_CF	chimeric.fl	aston
30	CfERV1z_LTR	chimeric.fl	aston
18	CfERV1a_LTR	chimeric.fl	aston
17	SINEC1D_CF	chimeric.fl	aston
10	CarLTR1B2_LTR	chimeric.fl	aston
8	CarLTR1B1_LTR	chimeric.fl	aston
7	Tigger2a_Car	chimeric.fl	aston
4	CfERV1c_LTR	chimeric.fl	aston
3	MLT1B	chimeric.fl	aston
3	L1_Carn5_3end	chimeric.fl	aston
2	MLT1C	chimeric.fl	aston
2	L1MB7	chimeric.fl	aston
2	CfERV1b_LTR	chimeric.fl	aston
2	CarLTR1A2B_LTR	chimeric.fl	aston
2	CarLTR11a_LTR	chimeric.fl	aston
2	CarERV2c2_LTR	chimeric.fl	aston
2	CarERV2b2_LTR	chimeric.fl	aston
2	CarERV2b1_LTR	chimeric.fl	aston
1	Tigger2f	chimeric.fl	aston
1	Tigger1a_Car	chimeric.fl	aston
1	SINEC_c1	chimeric.fl	aston
1	MLT2F	chimeric.fl	aston
1	MLT1A0	chimeric.fl	aston
1	MER68A	chimeric.fl	aston
1	MER63C	chimeric.fl	aston
1	MER58B	chimeric.fl	aston
1	MER34B_CF	chimeric.fl	aston
1	L1-Y_CF	chimeric.fl	aston
1	L1MC3	chimeric.fl	aston
1	CfERVF2B_LTR	chimeric.fl	aston
1	CarLTR9_LTR	chimeric.fl	aston
1	CarLTR7	chimeric.fl	aston
1	CarLTR2_LTR	chimeric.fl	aston
1	CarERV4a_LTR	chimeric.fl	aston
1	CarERV3_LTR	chimeric.fl	aston
1	CarERV2d1_LTR	chimeric.fl	aston
1	CarERV2a_LTR	chimeric.fl	aston
117	SINEC2A1_CF	non_chimeric.fl	domino
5	CfERVF1_LTR	non_chimeric.fl	domino
2	SINEC1B2_CF	non_chimeric.fl	domino
1	L1-Y_CF	non_chimeric.fl	domino
1	L1_Carn2_orf2	non_chimeric.fl	domino
1	CfERV1b_LTR	non_chimeric.fl	domino
1	CarERV2c2_LTR	non_chimeric.fl	domino
2958	SINEC2A1_CF	chimeric.fl	domino
443	SINEC1A_CF	chimeric.fl	domino
424	SINEC1B2_CF	chimeric.fl	domino
410	SINEC1_CF	chimeric.fl	domino
393	SINEC2A2_CF	chimeric.fl	domino
284	SINEC1C1_CF	chimeric.fl	domino
178	SINEC1B1_CF	chimeric.fl	domino
55	SINEC1C2_CF	chimeric.fl	domino
40	CfERVF1_LTR	chimeric.fl	domino
20	SINEC1D_CF	chimeric.fl	domino
16	CfERV1z_LTR	chimeric.fl	domino
10	CarLTR1B1_LTR	chimeric.fl	domino
7	CarLTR1B2_LTR	chimeric.fl	domino
6	CfERV1a_LTR	chimeric.fl	domino
4	Tigger2a_Car	chimeric.fl	domino
4	L1MB7	chimeric.fl	domino
4	L1_Carn5_3end	chimeric.fl	domino
4	CarLTR9_LTR	chimeric.fl	domino
4	CarLTR1A2A_LTR	chimeric.fl	domino
4	CarERV2b1_LTR	chimeric.fl	domino
3	MLT1B	chimeric.fl	domino
2	SAT1_CF	chimeric.fl	domino
2	MLT2B4	chimeric.fl	domino
2	L1MC3	chimeric.fl	domino
2	CfERV1c_LTR	chimeric.fl	domino
2	CfERV1b_LTR	chimeric.fl	domino
2	CarLTR8b	chimeric.fl	domino
2	CarLTR2_LTR	chimeric.fl	domino
2	CarLTR11b_LTR	chimeric.fl	domino
2	CarERV4c_CF	chimeric.fl	domino
1	MLT2F	chimeric.fl	domino
1	MLT1C	chimeric.fl	domino
1	MER90a_LTR	chimeric.fl	domino
1	MER21C_BT	chimeric.fl	domino
1	L1-Y_CF	chimeric.fl	domino
1	L1_Canid2_5end	chimeric.fl	domino
1	ERVL-B4	chimeric.fl	domino
1	CarLTR6b	chimeric.fl	domino
1	CarLTR1A2B_LTR	chimeric.fl	domino
1	CarLTR1A1B_LTR	chimeric.fl	domino
1	CarERV4a_LTR	chimeric.fl	domino
1	CarERV2c2_LTR	chimeric.fl	domino
1	CarERV2a_LTR	chimeric.fl	domino
203	SINEC2A1_CF	non_chimeric.fl	emir
19	CfERVF1_LTR	non_chimeric.fl	emir
4	SINEC1B2_CF	non_chimeric.fl	emir
2	L1-Y_CF	non_chimeric.fl	emir
1	SSU-rRNA_Hsa	non_chimeric.fl	emir
1	MER101B_CF	non_chimeric.fl	emir
1	CfERV1a_LTR	non_chimeric.fl	emir
1	CarERV4a_LTR	non_chimeric.fl	emir
2554	SINEC2A1_CF	chimeric.fl	emir
500	SINEC1A_CF	chimeric.fl	emir
389	SINEC1_CF	chimeric.fl	emir
380	SINEC1B2_CF	chimeric.fl	emir
357	SINEC2A2_CF	chimeric.fl	emir
268	SINEC1C1_CF	chimeric.fl	emir
201	SINEC1B1_CF	chimeric.fl	emir
59	SINEC1C2_CF	chimeric.fl	emir
58	CfERVF1_LTR	chimeric.fl	emir
10	SINEC1D_CF	chimeric.fl	emir
10	CfERV1z_LTR	chimeric.fl	emir
9	CfERV1a_LTR	chimeric.fl	emir
8	CarLTR9_LTR	chimeric.fl	emir
7	CfERV1b_LTR	chimeric.fl	emir
4	Tigger2a_Car	chimeric.fl	emir
4	CarLTR7	chimeric.fl	emir
4	CarLTR1B1_LTR	chimeric.fl	emir
4	CarERV2a_LTR	chimeric.fl	emir
3	SAT1_CF	chimeric.fl	emir
3	MER68A	chimeric.fl	emir
3	CfERV1c_LTR	chimeric.fl	emir
2	MLT1B	chimeric.fl	emir
2	MER34C_CF	chimeric.fl	emir
2	L1MB7	chimeric.fl	emir
2	L1_Carn5_3end	chimeric.fl	emir
2	CarLTR8b	chimeric.fl	emir
2	CarLTR3	chimeric.fl	emir
2	CarERV4a_LTR	chimeric.fl	emir
1	Tigger1a_Car	chimeric.fl	emir
1	MLT1C1	chimeric.fl	emir
1	MLT1A0	chimeric.fl	emir
1	MER58B	chimeric.fl	emir
1	MER34B_CF	chimeric.fl	emir
1	CarLTR6b	chimeric.fl	emir
1	CarLTR5_LTR	chimeric.fl	emir
1	CarLTR2_LTR	chimeric.fl	emir
1	CarLTR1B2_LTR	chimeric.fl	emir
1	CarLTR1A2B_LTR	chimeric.fl	emir
1	CarLTR1A1B_LTR	chimeric.fl	emir
1	CarLTR10_LTR	chimeric.fl	emir
1	CarERV4c_CF	chimeric.fl	emir
1	CarERV2d1_LTR	chimeric.fl	emir
1	CarERV2b2_LTR	chimeric.fl	emir
1	CarERV2b1_LTR	chimeric.fl	emir
738	SINEC2A1_CF	non_chimeric.fl	fute
6	SINEC1B2_CF	non_chimeric.fl	fute
5	SINEC1B1_CF	non_chimeric.fl	fute
4	SSU-rRNA_Hsa	non_chimeric.fl	fute
3	CfERVF1_LTR	non_chimeric.fl	fute
2	SINEC1A_CF	non_chimeric.fl	fute
2	CfERV1z_LTR	non_chimeric.fl	fute
2	CfERV1a_LTR	non_chimeric.fl	fute
1	L1MB7	non_chimeric.fl	fute
1	L1_Carn5_3end	non_chimeric.fl	fute
1	CarLTR1B2_LTR	non_chimeric.fl	fute
2113	SINEC2A1_CF	chimeric.fl	fute
444	SINEC1B2_CF	chimeric.fl	fute
348	SINEC1A_CF	chimeric.fl	fute
340	SINEC1_CF	chimeric.fl	fute
238	SINEC1C1_CF	chimeric.fl	fute
176	SINEC1B1_CF	chimeric.fl	fute
173	SINEC2A2_CF	chimeric.fl	fute
47	SINEC1C2_CF	chimeric.fl	fute
33	SINEC1D_CF	chimeric.fl	fute
27	CfERV1a_LTR	chimeric.fl	fute
14	CfERV1z_LTR	chimeric.fl	fute
13	CfERVF1_LTR	chimeric.fl	fute
8	MLT2F	chimeric.fl	fute
8	CfERV1c_LTR	chimeric.fl	fute
6	Tigger2a_Car	chimeric.fl	fute
5	Tigger1a_Car	chimeric.fl	fute
5	CarLTR9_LTR	chimeric.fl	fute
4	L1_Carn5_3end	chimeric.fl	fute
4	CarLTR1B2_LTR	chimeric.fl	fute
2	LTR72A_CF	chimeric.fl	fute
2	CfERV1b_LTR	chimeric.fl	fute
2	CarLTR1B1_LTR	chimeric.fl	fute
1	SINEC_c1	chimeric.fl	fute
1	SAT1_CF	chimeric.fl	fute
1	MLT1A0	chimeric.fl	fute
1	MER90a_LTR	chimeric.fl	fute
1	MER58B	chimeric.fl	fute
1	MER34C_CF	chimeric.fl	fute
1	L1MB7	chimeric.fl	fute
1	CarLTR1A2B_LTR	chimeric.fl	fute
1	CarLTR1A2A_LTR	chimeric.fl	fute
1	CarERV4a_LTR	chimeric.fl	fute
1	CarERV3_LTR	chimeric.fl	fute
1	CarERV2b2_LTR	chimeric.fl	fute
1	CarERV2b1_LTR	chimeric.fl	fute
197	SINEC2A1_CF	non_chimeric.fl	samy
8	CfERVF1_LTR	non_chimeric.fl	samy
3	SINEC1B2_CF	non_chimeric.fl	samy
3	L1-Y_CF	non_chimeric.fl	samy
3	CfERV1a_LTR	non_chimeric.fl	samy
2	SINEC1B1_CF	non_chimeric.fl	samy
2	CfERV1z_LTR	non_chimeric.fl	samy
1	L1_Carn5_3end	non_chimeric.fl	samy
1	CfERVF2_LTR	non_chimeric.fl	samy
1	CfERV1b_LTR	non_chimeric.fl	samy
1863	SINEC2A1_CF	chimeric.fl	samy
319	SINEC1A_CF	chimeric.fl	samy
269	SINEC1_CF	chimeric.fl	samy
262	SINEC2A2_CF	chimeric.fl	samy
253	SINEC1B2_CF	chimeric.fl	samy
164	SINEC1C1_CF	chimeric.fl	samy
112	SINEC1B1_CF	chimeric.fl	samy
32	SINEC1C2_CF	chimeric.fl	samy
20	CfERVF1_LTR	chimeric.fl	samy
15	SINEC1D_CF	chimeric.fl	samy
8	CfERV1z_LTR	chimeric.fl	samy
6	CfERV1a_LTR	chimeric.fl	samy
5	Tigger2a_Car	chimeric.fl	samy
4	CarLTR1B1_LTR	chimeric.fl	samy
4	CarERV2a_LTR	chimeric.fl	samy
3	CarLTR2_LTR	chimeric.fl	samy
3	CarERV2d1_LTR	chimeric.fl	samy
2	MLT1B	chimeric.fl	samy
1	Tigger1a_Car	chimeric.fl	samy
1	SSU-rRNA_Hsa	chimeric.fl	samy
1	SINEC_c1	chimeric.fl	samy
1	SAT1_CF	chimeric.fl	samy
1	MER34C_CF	chimeric.fl	samy
1	L1MB7	chimeric.fl	samy
1	CfERVF2_LTR	chimeric.fl	samy
1	CfERV1c_LTR	chimeric.fl	samy
1	CfERV1b_LTR	chimeric.fl	samy
1	CarLTR9_LTR	chimeric.fl	samy
1	CarLTR3	chimeric.fl	samy
1	CarLTR1B2_LTR	chimeric.fl	samy
1	CarLTR1A1B_LTR	chimeric.fl	samy
1	CarLTR10_LTR	chimeric.fl	samy
1	CarERV2b1_LTR	chimeric.fl	samy
250	SINEC2A1_CF	non_chimeric.fl	voyou
3	SINEC1B2_CF	non_chimeric.fl	voyou
3	L1-Y_CF	non_chimeric.fl	voyou
3	CfERVF1_LTR	non_chimeric.fl	voyou
2	CarLTR1B1_LTR	non_chimeric.fl	voyou
1	SSU-rRNA_Hsa	non_chimeric.fl	voyou
1	SINEC2A2_CF	non_chimeric.fl	voyou
1	SINEC1B1_CF	non_chimeric.fl	voyou
1	L1MB7	non_chimeric.fl	voyou
1	CfERV1z_LTR	non_chimeric.fl	voyou
1	CfERV1b_LTR	non_chimeric.fl	voyou
1	CarLTR9_LTR	non_chimeric.fl	voyou
1	CarLTR1B2_LTR	non_chimeric.fl	voyou
1	CarERV3_LTR	non_chimeric.fl	voyou
2240	SINEC2A1_CF	chimeric.fl	voyou
335	SINEC1A_CF	chimeric.fl	voyou
306	SINEC1_CF	chimeric.fl	voyou
306	SINEC1B2_CF	chimeric.fl	voyou
304	SINEC2A2_CF	chimeric.fl	voyou
150	SINEC1C1_CF	chimeric.fl	voyou
146	SINEC1B1_CF	chimeric.fl	voyou
31	SINEC1C2_CF	chimeric.fl	voyou
11	SINEC1D_CF	chimeric.fl	voyou
10	CfERV1z_LTR	chimeric.fl	voyou
5	CarLTR1B1_LTR	chimeric.fl	voyou
4	CfERVF1_LTR	chimeric.fl	voyou
4	CfERV1a_LTR	chimeric.fl	voyou
3	L1MB7	chimeric.fl	voyou
3	CarLTR9_LTR	chimeric.fl	voyou
3	CarERV4a_LTR	chimeric.fl	voyou
3	CarERV3_LTR	chimeric.fl	voyou
2	SAT1_CF	chimeric.fl	voyou
2	MLT2F	chimeric.fl	voyou
2	L1_Carn5_3end	chimeric.fl	voyou
2	CfERV1b_LTR	chimeric.fl	voyou
2	CarLTR3	chimeric.fl	voyou
1	Tigger1a_Car	chimeric.fl	voyou
1	MLT2B4	chimeric.fl	voyou
1	MLT2B2	chimeric.fl	voyou
1	MLT1C2	chimeric.fl	voyou
1	MLT1C	chimeric.fl	voyou
1	MLT1B	chimeric.fl	voyou
1	MER21C_BT	chimeric.fl	voyou
1	L1-Y_CF	chimeric.fl	voyou
1	CarLTR7	chimeric.fl	voyou
1	CarLTR1B2_LTR	chimeric.fl	voyou
1	CarLTR1A2B_LTR	chimeric.fl	voyou
1	CarLTR1A2A_LTR	chimeric.fl	voyou
1	CarERV4c_CF	chimeric.fl	voyou
1	CarERV2b2_LTR	chimeric.fl	voyou
1	CarERV2a_LTR	chimeric.fl	voyou
5	SINEC2A1_CF	non_chimeric.fl	bear
3	L1_CF	non_chimeric.fl	bear
1	SSU-rRNA_Hsa	non_chimeric.fl	bear
1	SINEC1B2_CF	non_chimeric.fl	bear
1	LSU-rRNA_Hsa	non_chimeric.fl	bear
1	L1_Carn3_5end	non_chimeric.fl	bear
1	L1_Carn2_orf2	non_chimeric.fl	bear
1	Charlie11	non_chimeric.fl	bear
37121	SINEC2A1_CF	chimeric.fl	bear
10562	SINEC1B2_CF	chimeric.fl	bear
9503	SINEC1A_CF	chimeric.fl	bear
8249	SINEC1C1_CF	chimeric.fl	bear
5171	SINEC1_CF	chimeric.fl	bear
4799	SINEC1B1_CF	chimeric.fl	bear
1512	SINEC1D_CF	chimeric.fl	bear
1224	SINEC1C2_CF	chimeric.fl	bear
356	SINEC2A2_CF	chimeric.fl	bear
104	L1_Carn5_3end	chimeric.fl	bear
99	L1MB7	chimeric.fl	bear
88	Tigger2a_Car	chimeric.fl	bear
85	MER34C_CF	chimeric.fl	bear
80	MLT1A0	chimeric.fl	bear
77	SINEC_c1	chimeric.fl	bear
58	MIRb	chimeric.fl	bear
50	CfERV1z_LTR	chimeric.fl	bear
42	CarLTR8b	chimeric.fl	bear
37	Bsp	chimeric.fl	bear
34	MLT1B	chimeric.fl	bear
30	CfERV1a_LTR	chimeric.fl	bear
29	CarLTR1B1_LTR	chimeric.fl	bear
28	MLT1D	chimeric.fl	bear
27	Tigger1a_Car	chimeric.fl	bear
24	MLT1C2	chimeric.fl	bear
16	CfERVF1_LTR	chimeric.fl	bear
15	Tigger2f	chimeric.fl	bear
15	MER21C	chimeric.fl	bear
15	L1-Y_CF	chimeric.fl	bear
15	CarERV4a1_LTR	chimeric.fl	bear
11	MLT1C1	chimeric.fl	bear
11	L1MA10	chimeric.fl	bear
11	L1_CF	chimeric.fl	bear
11	CarLTR1A2A_LTR	chimeric.fl	bear
10	CarERV2b1_LTR	chimeric.fl	bear
9	MER90a_LTR	chimeric.fl	bear
9	Kanga1	chimeric.fl	bear
9	CAN	chimeric.fl	bear
8	MLT1C	chimeric.fl	bear
7	MLT2B4	chimeric.fl	bear
7	CarLTR9_LTR	chimeric.fl	bear
7	CarLTR11a_LTR	chimeric.fl	bear
6	MER68A	chimeric.fl	bear
6	CarLTR10_LTR	chimeric.fl	bear
5	MER58B	chimeric.fl	bear
5	MER101_CF	chimeric.fl	bear
5	L1_Carn2_orf2	chimeric.fl	bear
5	Charlie11	chimeric.fl	bear
5	CfERV1c_LTR	chimeric.fl	bear
4	NeoSch-6.5283	chimeric.fl	bear
4	MLT1F	chimeric.fl	bear
4	MER34B_CF	chimeric.fl	bear
4	MER31A	chimeric.fl	bear
4	MER21C_BT	chimeric.fl	bear
4	L1MC3	chimeric.fl	bear
4	Carsat3	chimeric.fl	bear
4	CarLTR7	chimeric.fl	bear
4	CarLTR1B2_LTR	chimeric.fl	bear
4	CarLTR1A1B_LTR	chimeric.fl	bear
4	CarERV4b_LTR	chimeric.fl	bear
3	CHARLIE1	chimeric.fl	bear
3	CarLTR6b	chimeric.fl	bear
3	CarERV2b2_LTR	chimeric.fl	bear
2	TIGGER6A	chimeric.fl	bear
2	SAT1_CF	chimeric.fl	bear
2	MLT2F	chimeric.fl	bear
2	MLT1_I	chimeric.fl	bear
2	MER34A_CF	chimeric.fl	bear
2	MER34A1	chimeric.fl	bear
2	MER34A	chimeric.fl	bear
2	CHARLIE1B	chimeric.fl	bear
2	CfERVF2_LTR	chimeric.fl	bear
2	CarLTR1A3_LTR	chimeric.fl	bear
2	CarLTR11b_LTR	chimeric.fl	bear
2	CarERV4a_LTR	chimeric.fl	bear
2	CarERV2d2_LTR	chimeric.fl	bear
2	CarERV2c2_LTR	chimeric.fl	bear
1	Tigger9b	chimeric.fl	bear
1	MLT1F1	chimeric.fl	bear
1	MER82	chimeric.fl	bear
1	MER74A	chimeric.fl	bear
1	MER63C	chimeric.fl	bear
1	MER58D	chimeric.fl	bear
1	MER47B	chimeric.fl	bear
1	LTR87	chimeric.fl	bear
1	LTR35B_CF	chimeric.fl	bear
1	L1_Carn5_5end	chimeric.fl	bear
1	L1_Carn2_5end	chimeric.fl	bear
1	L1_Canid2_5end	chimeric.fl	bear
1	CHARLIE1A	chimeric.fl	bear
1	CfERV1b_LTR	chimeric.fl	bear
1	CfERV1	chimeric.fl	bear
1	CarSat1	chimeric.fl	bear
1	CarLTR5_LTR	chimeric.fl	bear
1	CarLTR4_LTR	chimeric.fl	bear
1	CarLTR2_LTR	chimeric.fl	bear
1	CarLTR1A1A_LTR	chimeric.fl	bear
1	CarERVR1_LTR	chimeric.fl	bear
1	CarERV4a2_LTR	chimeric.fl	bear
1	CarERV3_LTR	chimeric.fl	bear
1	CarERV2a_LTR	chimeric.fl	bear
28	LSU-rRNA_Hsa	non_chimeric.fl	chipie
13	SINEC2A1_CF	non_chimeric.fl	chipie
4	SSU-rRNA_Hsa	non_chimeric.fl	chipie
1	SINEC2A2_CF	non_chimeric.fl	chipie
1	L1_Carn5_3end	non_chimeric.fl	chipie
96452	SINEC2A1_CF	chimeric.fl	chipie
26751	SINEC1B2_CF	chimeric.fl	chipie
15890	SINEC1A_CF	chimeric.fl	chipie
14625	SINEC1C1_CF	chimeric.fl	chipie
8651	SINEC1_CF	chimeric.fl	chipie
8494	SINEC1B1_CF	chimeric.fl	chipie
1435	SINEC1C2_CF	chimeric.fl	chipie
1350	SINEC1D_CF	chimeric.fl	chipie
704	SINEC2A2_CF	chimeric.fl	chipie
566	CfERV1z_LTR	chimeric.fl	chipie
158	CfERV1a_LTR	chimeric.fl	chipie
136	L1_Carn5_3end	chimeric.fl	chipie
104	L1MB7	chimeric.fl	chipie
84	CarLTR9_LTR	chimeric.fl	chipie
82	CarLTR8b	chimeric.fl	chipie
71	SINEC_c1	chimeric.fl	chipie
69	Tigger1a_Car	chimeric.fl	chipie
67	MLT1A0	chimeric.fl	chipie
59	Tigger2a_Car	chimeric.fl	chipie
53	MLT1B	chimeric.fl	chipie
47	MLT1C2	chimeric.fl	chipie
42	CfERVF1_LTR	chimeric.fl	chipie
28	CarLTR1B1_LTR	chimeric.fl	chipie
24	Tigger2f	chimeric.fl	chipie
24	L1-Y_CF	chimeric.fl	chipie
23	MIRb	chimeric.fl	chipie
22	CarERV4a1_LTR	chimeric.fl	chipie
21	CarLTR1B2_LTR	chimeric.fl	chipie
16	Charlie11	chimeric.fl	chipie
15	CarLTR1A2A_LTR	chimeric.fl	chipie
14	SSU-rRNA_Hsa	chimeric.fl	chipie
14	MLT1C	chimeric.fl	chipie
13	MLT1C1	chimeric.fl	chipie
12	MLT2B4	chimeric.fl	chipie
11	MER90a_LTR	chimeric.fl	chipie
11	CarERV3_LTR	chimeric.fl	chipie
10	SAT1_CF	chimeric.fl	chipie
10	CfERV1	chimeric.fl	chipie
9	MLT2F	chimeric.fl	chipie
8	MER58B	chimeric.fl	chipie
8	CHARLIE1	chimeric.fl	chipie
8	Carsat3	chimeric.fl	chipie
7	TIGGER5_B	chimeric.fl	chipie
7	Kanga1	chimeric.fl	chipie
7	CfERV1c_LTR	chimeric.fl	chipie
7	CarERV4a2_LTR	chimeric.fl	chipie
7	CAN	chimeric.fl	chipie
6	MLT1F	chimeric.fl	chipie
6	MLT1D	chimeric.fl	chipie
6	MER34C_CF	chimeric.fl	chipie
6	CarERV2b1_LTR	chimeric.fl	chipie
5	MER21C_BT	chimeric.fl	chipie
5	L1_Carn2_orf2	chimeric.fl	chipie
5	CarLTR11a_LTR	chimeric.fl	chipie
5	CarLTR10_LTR	chimeric.fl	chipie
5	CarERV2b2_LTR	chimeric.fl	chipie
4	L1MC3	chimeric.fl	chipie
4	L1_Carn3_5end	chimeric.fl	chipie
4	CarLTR1A1B_LTR	chimeric.fl	chipie
3	MER68A	chimeric.fl	chipie
3	L1_CF	chimeric.fl	chipie
3	L1_Carn1_5end	chimeric.fl	chipie
3	L1_Canid2_5end	chimeric.fl	chipie
3	CHARLIE1A	chimeric.fl	chipie
3	CfERV1b_LTR	chimeric.fl	chipie
3	CarLTR6b	chimeric.fl	chipie
3	CarLTR5_LTR	chimeric.fl	chipie
3	CarERV4b_LTR	chimeric.fl	chipie
2	MER82	chimeric.fl	chipie
2	MER69B	chimeric.fl	chipie
2	MER34A	chimeric.fl	chipie
2	MER21C	chimeric.fl	chipie
2	MER101_CF	chimeric.fl	chipie
2	CfERVF2_LTR	chimeric.fl	chipie
2	CarLTR2_LTR	chimeric.fl	chipie
2	CarLTR1A1A_LTR	chimeric.fl	chipie
2	CarERV4a_LTR	chimeric.fl	chipie
2	CarERV2c2_LTR	chimeric.fl	chipie
2	CarERV2a_LTR	chimeric.fl	chipie
1	NeoSch-6.5283	chimeric.fl	chipie
1	MLT-int	chimeric.fl	chipie
1	MLT1E2	chimeric.fl	chipie
1	MLT1E	chimeric.fl	chipie
1	MER68_I	chimeric.fl	chipie
1	MER34A1	chimeric.fl	chipie
1	MER31A	chimeric.fl	chipie
1	LSU-rRNA_Hsa	chimeric.fl	chipie
1	L1MEC_5	chimeric.fl	chipie
1	L1MDA_5	chimeric.fl	chipie
1	L1MA10	chimeric.fl	chipie
1	L1_Carn5_5end	chimeric.fl	chipie
1	L1_Carn2_5end	chimeric.fl	chipie
1	CarLTR7	chimeric.fl	chipie
1	CarLTR1A3_LTR	chimeric.fl	chipie
1	CarLTR1A1C_LTR	chimeric.fl	chipie
1	CarLTR11b_LTR	chimeric.fl	chipie
1	CarERVR1_LTR	chimeric.fl	chipie
1	Bsp	chimeric.fl	chipie
33	SINEC2A1_CF	non_chimeric.fl	chrystalPoumon
25	LSU-rRNA_Hsa	non_chimeric.fl	chrystalPoumon
4	SSU-rRNA_Hsa	non_chimeric.fl	chrystalPoumon
2	CfERV1a_LTR	non_chimeric.fl	chrystalPoumon
1	SINEC1C1_CF	non_chimeric.fl	chrystalPoumon
76519	SINEC2A1_CF	chimeric.fl	chrystalPoumon
40330	SINEC1A_CF	chimeric.fl	chrystalPoumon
18776	SINEC1B2_CF	chimeric.fl	chrystalPoumon
12840	SINEC1C1_CF	chimeric.fl	chrystalPoumon
10794	SINEC1B1_CF	chimeric.fl	chrystalPoumon
8776	SINEC1_CF	chimeric.fl	chrystalPoumon
1885	SINEC1C2_CF	chimeric.fl	chrystalPoumon
1550	SINEC1D_CF	chimeric.fl	chrystalPoumon
580	CfERV1a_LTR	chimeric.fl	chrystalPoumon
579	SINEC2A2_CF	chimeric.fl	chrystalPoumon
172	MLT1C1	chimeric.fl	chrystalPoumon
107	MER34C_CF	chimeric.fl	chrystalPoumon
98	MLT1A0	chimeric.fl	chrystalPoumon
98	CfERV1z_LTR	chimeric.fl	chrystalPoumon
80	CarLTR9_LTR	chimeric.fl	chrystalPoumon
71	SINEC_c1	chimeric.fl	chrystalPoumon
69	Tigger2a_Car	chimeric.fl	chrystalPoumon
69	L1_Carn5_3end	chimeric.fl	chrystalPoumon
68	L1MB7	chimeric.fl	chrystalPoumon
40	MIRb	chimeric.fl	chrystalPoumon
38	Tigger1a_Car	chimeric.fl	chrystalPoumon
35	CarLTR8b	chimeric.fl	chrystalPoumon
30	CfERV1c_LTR	chimeric.fl	chrystalPoumon
27	CfERV1	chimeric.fl	chrystalPoumon
23	CarLTR1B1_LTR	chimeric.fl	chrystalPoumon
20	CAN	chimeric.fl	chrystalPoumon
19	MLT1B	chimeric.fl	chrystalPoumon
17	Kanga1	chimeric.fl	chrystalPoumon
15	MLT1C2	chimeric.fl	chrystalPoumon
15	CfERVF1_LTR	chimeric.fl	chrystalPoumon
13	CarERV2c2_LTR	chimeric.fl	chrystalPoumon
12	Tigger2f	chimeric.fl	chrystalPoumon
12	CarERV4a1_LTR	chimeric.fl	chrystalPoumon
11	MLT2B4	chimeric.fl	chrystalPoumon
9	MER58B	chimeric.fl	chrystalPoumon
8	TIGGER5_B	chimeric.fl	chrystalPoumon
8	MLT1D	chimeric.fl	chrystalPoumon
8	MLT1C	chimeric.fl	chrystalPoumon
8	L1-Y_CF	chimeric.fl	chrystalPoumon
7	L1_CF	chimeric.fl	chrystalPoumon
7	CarLTR1B2_LTR	chimeric.fl	chrystalPoumon
7	Bsp	chimeric.fl	chrystalPoumon
6	MER68A	chimeric.fl	chrystalPoumon
6	CarLTR1A2A_LTR	chimeric.fl	chrystalPoumon
6	CarLTR10_LTR	chimeric.fl	chrystalPoumon
5	MER90a_LTR	chimeric.fl	chrystalPoumon
5	MER21C	chimeric.fl	chrystalPoumon
5	L1MA10	chimeric.fl	chrystalPoumon
5	CarLTR1A1B_LTR	chimeric.fl	chrystalPoumon
5	CarLTR11a_LTR	chimeric.fl	chrystalPoumon
5	CarERV2b1_LTR	chimeric.fl	chrystalPoumon
4	SSU-rRNA_Hsa	chimeric.fl	chrystalPoumon
4	MER101_CF	chimeric.fl	chrystalPoumon
4	L1MC3	chimeric.fl	chrystalPoumon
4	CarERV3_LTR	chimeric.fl	chrystalPoumon
3	SAT1_CF	chimeric.fl	chrystalPoumon
3	MLT1E2	chimeric.fl	chrystalPoumon
3	MER82	chimeric.fl	chrystalPoumon
3	L1_Carn3_5end	chimeric.fl	chrystalPoumon
3	L1_Carn2_orf2	chimeric.fl	chrystalPoumon
3	CfERV1b_LTR	chimeric.fl	chrystalPoumon
3	Carsat3	chimeric.fl	chrystalPoumon
3	CarLTR5_LTR	chimeric.fl	chrystalPoumon
3	CarERV4a_LTR	chimeric.fl	chrystalPoumon
2	TIGGER5_A	chimeric.fl	chrystalPoumon
2	MLT2F	chimeric.fl	chrystalPoumon
2	MIRc	chimeric.fl	chrystalPoumon
2	Charlie11	chimeric.fl	chrystalPoumon
2	CarLTR7	chimeric.fl	chrystalPoumon
2	CarERV4a2_LTR	chimeric.fl	chrystalPoumon
2	CarERV2a_LTR	chimeric.fl	chrystalPoumon
1	NeoSch-6.5283	chimeric.fl	chrystalPoumon
1	MLT1F	chimeric.fl	chrystalPoumon
1	MLT1E1	chimeric.fl	chrystalPoumon
1	MER44D	chimeric.fl	chrystalPoumon
1	MER34A_CF	chimeric.fl	chrystalPoumon
1	MER21B	chimeric.fl	chrystalPoumon
1	L1MDA_5	chimeric.fl	chrystalPoumon
1	L1_Carni_orf2	chimeric.fl	chrystalPoumon
1	L1_Carn2_5end	chimeric.fl	chrystalPoumon
1	L1_Canid2_5end	chimeric.fl	chrystalPoumon
1	CHARLIE1B	chimeric.fl	chrystalPoumon
1	CHARLIE1A	chimeric.fl	chrystalPoumon
1	CHARLIE1	chimeric.fl	chrystalPoumon
1	CfERVF2_LTR	chimeric.fl	chrystalPoumon
1	CarLTR6b	chimeric.fl	chrystalPoumon
1	CarLTR4_LTR	chimeric.fl	chrystalPoumon
1	CarLTR2_LTR	chimeric.fl	chrystalPoumon
1	CarLTR11b_LTR	chimeric.fl	chrystalPoumon
1	CarERVR1_LTR	chimeric.fl	chrystalPoumon
1	CarERV4b_LTR	chimeric.fl	chrystalPoumon
1	CarERV2d2_LTR	chimeric.fl	chrystalPoumon
1	CarERV2d1_LTR	chimeric.fl	chrystalPoumon
19	SINEC2A1_CF	non_chimeric.fl	chrystalRate
11	LSU-rRNA_Hsa	non_chimeric.fl	chrystalRate
3	SSU-rRNA_Hsa	non_chimeric.fl	chrystalRate
2	Charlie11	non_chimeric.fl	chrystalRate
1	Tigger2f	non_chimeric.fl	chrystalRate
1	L1_Carn2_orf2	non_chimeric.fl	chrystalRate
1	CfERV1	non_chimeric.fl	chrystalRate
30589	SINEC2A1_CF	chimeric.fl	chrystalRate
6606	SINEC1B2_CF	chimeric.fl	chrystalRate
5617	SINEC1A_CF	chimeric.fl	chrystalRate
4774	SINEC1C1_CF	chimeric.fl	chrystalRate
3309	SINEC1_CF	chimeric.fl	chrystalRate
2731	SINEC1B1_CF	chimeric.fl	chrystalRate
1002	CfERV1a_LTR	chimeric.fl	chrystalRate
657	SINEC1D_CF	chimeric.fl	chrystalRate
619	SINEC1C2_CF	chimeric.fl	chrystalRate
260	SINEC2A2_CF	chimeric.fl	chrystalRate
207	CarLTR9_LTR	chimeric.fl	chrystalRate
92	MLT1C1	chimeric.fl	chrystalRate
89	CfERV1z_LTR	chimeric.fl	chrystalRate
62	CfERV1	chimeric.fl	chrystalRate
42	L1MB7	chimeric.fl	chrystalRate
35	MLT1A0	chimeric.fl	chrystalRate
32	SINEC_c1	chimeric.fl	chrystalRate
28	L1_Carn5_3end	chimeric.fl	chrystalRate
26	Tigger2a_Car	chimeric.fl	chrystalRate
26	MLT1B	chimeric.fl	chrystalRate
23	Tigger1a_Car	chimeric.fl	chrystalRate
23	MIRb	chimeric.fl	chrystalRate
16	CarLTR8b	chimeric.fl	chrystalRate
14	CarLTR1B1_LTR	chimeric.fl	chrystalRate
14	CarERV2c2_LTR	chimeric.fl	chrystalRate
13	L1_CF	chimeric.fl	chrystalRate
11	CarERV4a1_LTR	chimeric.fl	chrystalRate
10	MER34C_CF	chimeric.fl	chrystalRate
9	MLT1C2	chimeric.fl	chrystalRate
9	Bsp	chimeric.fl	chrystalRate
8	MER58B	chimeric.fl	chrystalRate
8	CfERVF1_LTR	chimeric.fl	chrystalRate
7	CfERV1c_LTR	chimeric.fl	chrystalRate
6	Kanga1	chimeric.fl	chrystalRate
6	CarERV3_LTR	chimeric.fl	chrystalRate
6	CarERV2a_LTR	chimeric.fl	chrystalRate
5	CarLTR1B2_LTR	chimeric.fl	chrystalRate
4	MLT2F	chimeric.fl	chrystalRate
4	L1-Y_CF	chimeric.fl	chrystalRate
4	CarERV2b1_LTR	chimeric.fl	chrystalRate
3	MLT1C	chimeric.fl	chrystalRate
3	MER90a_LTR	chimeric.fl	chrystalRate
3	MER101_CF	chimeric.fl	chrystalRate
3	Charlie11	chimeric.fl	chrystalRate
3	CarLTR1A2A_LTR	chimeric.fl	chrystalRate
3	CarLTR11a_LTR	chimeric.fl	chrystalRate
2	Tigger2f	chimeric.fl	chrystalRate
2	SAT1_CF	chimeric.fl	chrystalRate
2	MLT2B4	chimeric.fl	chrystalRate
2	MLT1F	chimeric.fl	chrystalRate
2	MLT1D	chimeric.fl	chrystalRate
2	MER68A	chimeric.fl	chrystalRate
2	MER34A	chimeric.fl	chrystalRate
2	CarLTR1A3_LTR	chimeric.fl	chrystalRate
2	CarLTR1A1C_LTR	chimeric.fl	chrystalRate
2	CarLTR1A1B_LTR	chimeric.fl	chrystalRate
2	CarLTR10_LTR	chimeric.fl	chrystalRate
1	TIGGER5_B	chimeric.fl	chrystalRate
1	SSU-rRNA_Hsa	chimeric.fl	chrystalRate
1	NeoSch-6.5283	chimeric.fl	chrystalRate
1	MER74A	chimeric.fl	chrystalRate
1	MER58D	chimeric.fl	chrystalRate
1	MER31A	chimeric.fl	chrystalRate
1	MER21C_BT	chimeric.fl	chrystalRate
1	MER21C	chimeric.fl	chrystalRate
1	LTR72B_CF	chimeric.fl	chrystalRate
1	LTR51_CF	chimeric.fl	chrystalRate
1	LTR35B_CF	chimeric.fl	chrystalRate
1	L1MC3	chimeric.fl	chrystalRate
1	L1MA10	chimeric.fl	chrystalRate
1	L1_Carn3_5end	chimeric.fl	chrystalRate
1	CfERVF2B_LTR	chimeric.fl	chrystalRate
1	Carsat3	chimeric.fl	chrystalRate
1	CarLTR7	chimeric.fl	chrystalRate
1	CarLTR5_LTR	chimeric.fl	chrystalRate
1	CarLTR1A1A_LTR	chimeric.fl	chrystalRate
1	CarERV4c_CF	chimeric.fl	chrystalRate
1	CarERV4a2_LTR	chimeric.fl	chrystalRate
1	CarERV2d1_LTR	chimeric.fl	chrystalRate
79	SINEC2A1_CF	non_chimeric.fl	cml10
59	LSU-rRNA_Hsa	non_chimeric.fl	cml10
30	SSU-rRNA_Hsa	non_chimeric.fl	cml10
4	L1-Y_CF	non_chimeric.fl	cml10
3	L1_CF	non_chimeric.fl	cml10
2	Tigger2f	non_chimeric.fl	cml10
2	SINEC2A2_CF	non_chimeric.fl	cml10
2	SINEC1_CF	non_chimeric.fl	cml10
2	SINEC1C1_CF	non_chimeric.fl	cml10
2	SINEC1B2_CF	non_chimeric.fl	cml10
1	SINEC1B1_CF	non_chimeric.fl	cml10
1	SINEC1A_CF	non_chimeric.fl	cml10
1	L1_Carn2_5end	non_chimeric.fl	cml10
198923	SINEC2A1_CF	chimeric.fl	cml10
28595	SINEC1B2_CF	chimeric.fl	cml10
21714	SINEC1A_CF	chimeric.fl	cml10
14413	SINEC1C1_CF	chimeric.fl	cml10
14129	SINEC1_CF	chimeric.fl	cml10
10034	SINEC1B1_CF	chimeric.fl	cml10
1968	SINEC1C2_CF	chimeric.fl	cml10
1853	SINEC1D_CF	chimeric.fl	cml10
1555	SINEC2A2_CF	chimeric.fl	cml10
246	CfERV1a_LTR	chimeric.fl	cml10
170	L1_Carn5_3end	chimeric.fl	cml10
152	L1MB7	chimeric.fl	cml10
125	SINEC_c1	chimeric.fl	cml10
107	Tigger2a_Car	chimeric.fl	cml10
76	CfERV1z_LTR	chimeric.fl	cml10
75	MLT1A0	chimeric.fl	cml10
75	CarLTR8b	chimeric.fl	cml10
69	MLT1B	chimeric.fl	cml10
62	Tigger1a_Car	chimeric.fl	cml10
55	MIRb	chimeric.fl	cml10
54	CfERVF1_LTR	chimeric.fl	cml10
50	MER34C_CF	chimeric.fl	cml10
40	CarLTR9_LTR	chimeric.fl	cml10
32	L1-Y_CF	chimeric.fl	cml10
32	CfERV1	chimeric.fl	cml10
31	MER90a_LTR	chimeric.fl	cml10
30	CarLTR1B1_LTR	chimeric.fl	cml10
26	MLT1C2	chimeric.fl	cml10
23	Tigger2f	chimeric.fl	cml10
22	CarLTR1B2_LTR	chimeric.fl	cml10
21	CarERV4a1_LTR	chimeric.fl	cml10
19	CarLTR11a_LTR	chimeric.fl	cml10
18	L1_CF	chimeric.fl	cml10
17	CarERV3_LTR	chimeric.fl	cml10
16	L1_Carn2_orf2	chimeric.fl	cml10
14	MLT1C1	chimeric.fl	cml10
14	MLT1C	chimeric.fl	cml10
11	CarLTR1A2A_LTR	chimeric.fl	cml10
11	CAN	chimeric.fl	cml10
10	MER68A	chimeric.fl	cml10
10	Kanga1	chimeric.fl	cml10
9	CfERV1c_LTR	chimeric.fl	cml10
8	MER101_CF	chimeric.fl	cml10
8	L1MC3	chimeric.fl	cml10
8	CarERV2b2_LTR	chimeric.fl	cml10
8	CarERV2b1_LTR	chimeric.fl	cml10
7	SSU-rRNA_Hsa	chimeric.fl	cml10
7	NeoSch-6.5283	chimeric.fl	cml10
7	CarLTR1A1A_LTR	chimeric.fl	cml10
7	CarERV4b_LTR	chimeric.fl	cml10
6	MLT2F	chimeric.fl	cml10
6	MLT2B4	chimeric.fl	cml10
6	CHARLIE1	chimeric.fl	cml10
6	CarLTR5_LTR	chimeric.fl	cml10
6	CarERV4a2_LTR	chimeric.fl	cml10
5	MLT1D	chimeric.fl	cml10
5	MER31A	chimeric.fl	cml10
5	MER21C	chimeric.fl	cml10
5	L1_Canid2_5end	chimeric.fl	cml10
5	CarLTR7	chimeric.fl	cml10
5	CarLTR2_LTR	chimeric.fl	cml10
5	CarLTR1A1B_LTR	chimeric.fl	cml10
5	Bsp	chimeric.fl	cml10
4	MLT1E2	chimeric.fl	cml10
4	MER34B_CF	chimeric.fl	cml10
4	L1_Carn2_5end	chimeric.fl	cml10
4	CfERVF2B_LTR	chimeric.fl	cml10
4	Carsat3	chimeric.fl	cml10
4	CarLTR10_LTR	chimeric.fl	cml10
4	CarERV4a_LTR	chimeric.fl	cml10
4	CarERV2d1_LTR	chimeric.fl	cml10
4	CarERV2c2_LTR	chimeric.fl	cml10
3	TIGGER6A	chimeric.fl	cml10
3	SAT1_CF	chimeric.fl	cml10
3	MLT1F	chimeric.fl	cml10
3	MER58B	chimeric.fl	cml10
3	MER34A	chimeric.fl	cml10
3	MER21C_BT	chimeric.fl	cml10
3	CfERV1b_LTR	chimeric.fl	cml10
3	CarLTR3	chimeric.fl	cml10
3	CarLTR1A2B_LTR	chimeric.fl	cml10
2	TIGGER5_B	chimeric.fl	cml10
2	MER82	chimeric.fl	cml10
2	MER74A	chimeric.fl	cml10
2	MER47B	chimeric.fl	cml10
2	L1MA10	chimeric.fl	cml10
2	L1_Carn1_5end	chimeric.fl	cml10
2	Charlie11	chimeric.fl	cml10
2	CarLTR1A3_LTR	chimeric.fl	cml10
2	CarLTR11b_LTR	chimeric.fl	cml10
1	MLT1E	chimeric.fl	cml10
1	MIRc	chimeric.fl	cml10
1	MER87_CF	chimeric.fl	cml10
1	MER63C	chimeric.fl	cml10
1	MER58A	chimeric.fl	cml10
1	LTR51_CF	chimeric.fl	cml10
1	L1_Carn5_5end	chimeric.fl	cml10
1	L1_Carn3_5end	chimeric.fl	cml10
1	L1_Canid_5end	chimeric.fl	cml10
1	CHARLIE4	chimeric.fl	cml10
1	CHARLIE1B	chimeric.fl	cml10
1	CHARLIE1A	chimeric.fl	cml10
1	CfERVF2	chimeric.fl	cml10
1	CarLTR6b	chimeric.fl	cml10
1	CarLTR1-int	chimeric.fl	cml10
1	CarLTR1A1C_LTR	chimeric.fl	cml10
1	CarERV4c_CF	chimeric.fl	cml10
1	CarERV2a_LTR	chimeric.fl	cml10
11	L1-Y_CF	non_chimeric.fl	popsi
6	LSU-rRNA_Hsa	non_chimeric.fl	popsi
5	SSU-rRNA_Hsa	non_chimeric.fl	popsi
5	SINEC2A1_CF	non_chimeric.fl	popsi
4	CfERV1	non_chimeric.fl	popsi
1	L1MC3	non_chimeric.fl	popsi
1	L1_CF	non_chimeric.fl	popsi
1	L1_Carn2_orf2	non_chimeric.fl	popsi
1	CfERVF1	non_chimeric.fl	popsi
67352	SINEC2A1_CF	chimeric.fl	popsi
19900	SINEC1B2_CF	chimeric.fl	popsi
18929	SINEC1A_CF	chimeric.fl	popsi
15318	SINEC1C1_CF	chimeric.fl	popsi
9739	SINEC1_CF	chimeric.fl	popsi
7852	SINEC1B1_CF	chimeric.fl	popsi
1761	SINEC1D_CF	chimeric.fl	popsi
1580	SINEC1C2_CF	chimeric.fl	popsi
574	SINEC2A2_CF	chimeric.fl	popsi
412	CfERV1a_LTR	chimeric.fl	popsi
203	L1_Carn5_3end	chimeric.fl	popsi
198	Tigger2a_Car	chimeric.fl	popsi
188	L1MB7	chimeric.fl	popsi
148	MLT1A0	chimeric.fl	popsi
132	CfERV1z_LTR	chimeric.fl	popsi
98	CarLTR1B1_LTR	chimeric.fl	popsi
85	Tigger1a_Car	chimeric.fl	popsi
83	SINEC_c1	chimeric.fl	popsi
63	MLT1B	chimeric.fl	popsi
61	MER34C_CF	chimeric.fl	popsi
48	CfERV1	chimeric.fl	popsi
33	Bsp	chimeric.fl	popsi
32	CarLTR9_LTR	chimeric.fl	popsi
31	MIRb	chimeric.fl	popsi
28	Tigger2f	chimeric.fl	popsi
26	MLT1D	chimeric.fl	popsi
26	MLT1C2	chimeric.fl	popsi
26	CarLTR1B2_LTR	chimeric.fl	popsi
22	MER90a_LTR	chimeric.fl	popsi
22	L1-Y_CF	chimeric.fl	popsi
20	CarERV2b1_LTR	chimeric.fl	popsi
19	MLT1C1	chimeric.fl	popsi
19	CarLTR8b	chimeric.fl	popsi
16	MER101_CF	chimeric.fl	popsi
16	Kanga1	chimeric.fl	popsi
16	CfERVF1_LTR	chimeric.fl	popsi
16	CarLTR1A2A_LTR	chimeric.fl	popsi
14	MER58B	chimeric.fl	popsi
14	L1_CF	chimeric.fl	popsi
14	CarLTR5_LTR	chimeric.fl	popsi
14	CarERV3_LTR	chimeric.fl	popsi
13	L1_Carn2_orf2	chimeric.fl	popsi
13	CarERV2c2_LTR	chimeric.fl	popsi
12	MLT2B4	chimeric.fl	popsi
12	MLT1C	chimeric.fl	popsi
12	LTR51_CF	chimeric.fl	popsi
12	L1MC3	chimeric.fl	popsi
12	Carsat3	chimeric.fl	popsi
11	CarERV4a1_LTR	chimeric.fl	popsi
9	NeoSch-6.5283	chimeric.fl	popsi
9	CarLTR10_LTR	chimeric.fl	popsi
8	CarLTR11a_LTR	chimeric.fl	popsi
8	CarERV2d1_LTR	chimeric.fl	popsi
8	CarERV2b2_LTR	chimeric.fl	popsi
7	MER68A	chimeric.fl	popsi
7	MER21C_BT	chimeric.fl	popsi
7	CarERV2a_LTR	chimeric.fl	popsi
6	SSU-rRNA_Hsa	chimeric.fl	popsi
6	MLT2F	chimeric.fl	popsi
6	MER21C	chimeric.fl	popsi
6	CarLTR2_LTR	chimeric.fl	popsi
5	TIGGER5_B	chimeric.fl	popsi
5	SAT1_CF	chimeric.fl	popsi
5	L1_Carn3_5end	chimeric.fl	popsi
5	CfERV1c_LTR	chimeric.fl	popsi
5	CarLTR7	chimeric.fl	popsi
5	CarERVR1_LTR	chimeric.fl	popsi
5	CAN	chimeric.fl	popsi
4	MLT1_I	chimeric.fl	popsi
4	MLT1F	chimeric.fl	popsi
4	L1MA10	chimeric.fl	popsi
4	L1_Canid2_5end	chimeric.fl	popsi
4	CfERV1b_LTR	chimeric.fl	popsi
4	CarLTR6b	chimeric.fl	popsi
4	CarLTR1A1B_LTR	chimeric.fl	popsi
4	CarERV2d2_LTR	chimeric.fl	popsi
3	TIGGER6A	chimeric.fl	popsi
3	MER68_I	chimeric.fl	popsi
3	MER47B	chimeric.fl	popsi
3	MER34B_CF	chimeric.fl	popsi
3	MER34A_CF	chimeric.fl	popsi
3	MER34A	chimeric.fl	popsi
3	MER31A	chimeric.fl	popsi
3	CarERV4a2_LTR	chimeric.fl	popsi
2	MLT1F_I	chimeric.fl	popsi
2	LTR72A_CF	chimeric.fl	popsi
2	L1MB6_5	chimeric.fl	popsi
2	L1_Carn2_5end	chimeric.fl	popsi
2	CHARLIE1A	chimeric.fl	popsi
2	Charlie11	chimeric.fl	popsi
2	CHARLIE1	chimeric.fl	popsi
2	CfERVF2_LTR	chimeric.fl	popsi
2	CfERVF2B_LTR	chimeric.fl	popsi
2	CarLTR1A3_LTR	chimeric.fl	popsi
2	CarLTR1A1C_LTR	chimeric.fl	popsi
2	CarLTR1A1A_LTR	chimeric.fl	popsi
2	CarLTR11b_LTR	chimeric.fl	popsi
2	CarERV4b_LTR	chimeric.fl	popsi
1	TIGGER5A	chimeric.fl	popsi
1	MER82	chimeric.fl	popsi
1	MER80	chimeric.fl	popsi
1	MER58A	chimeric.fl	popsi
1	MER34A1	chimeric.fl	popsi
1	MER3	chimeric.fl	popsi
1	MER21B	chimeric.fl	popsi
1	LTR72B_CF	chimeric.fl	popsi
1	L1ME3D_3end	chimeric.fl	popsi
1	L1MDA_5	chimeric.fl	popsi
1	EuthAT-N1	chimeric.fl	popsi
1	CHARLIE4	chimeric.fl	popsi
1	CHARLIE1B	chimeric.fl	popsi
1	CarLTR6c	chimeric.fl	popsi
1	CarLTR3	chimeric.fl	popsi
1	CarLTR1A2B_LTR	chimeric.fl	popsi
1	CarERV2c1_LTR	chimeric.fl	popsi
34	SINEC2A1_CF	non_chimeric.fl	twiny
8	L1-Y_CF	non_chimeric.fl	twiny
7	SSU-rRNA_Hsa	non_chimeric.fl	twiny
6	LSU-rRNA_Hsa	non_chimeric.fl	twiny
4	L1_CF	non_chimeric.fl	twiny
1	SINEC2A2_CF	non_chimeric.fl	twiny
1	SINEC1C2_CF	non_chimeric.fl	twiny
1	SINEC1B1_CF	non_chimeric.fl	twiny
1	SINEC1A_CF	non_chimeric.fl	twiny
1	L1MB7	non_chimeric.fl	twiny
1	L1_Carn5_3end	non_chimeric.fl	twiny
1	L1_Carn2_orf2	non_chimeric.fl	twiny
159953	SINEC2A1_CF	chimeric.fl	twiny
37549	SINEC1B2_CF	chimeric.fl	twiny
28433	SINEC1A_CF	chimeric.fl	twiny
25853	SINEC1B1_CF	chimeric.fl	twiny
19087	SINEC1C1_CF	chimeric.fl	twiny
16063	SINEC1_CF	chimeric.fl	twiny
2339	SINEC1D_CF	chimeric.fl	twiny
2099	SINEC1C2_CF	chimeric.fl	twiny
987	SINEC2A2_CF	chimeric.fl	twiny
179	MER34C_CF	chimeric.fl	twiny
157	Tigger2a_Car	chimeric.fl	twiny
128	L1_Carn5_3end	chimeric.fl	twiny
119	L1MB7	chimeric.fl	twiny
118	MLT1A0	chimeric.fl	twiny
112	SINEC_c1	chimeric.fl	twiny
87	CfERV1a_LTR	chimeric.fl	twiny
78	CfERV1z_LTR	chimeric.fl	twiny
71	Tigger1a_Car	chimeric.fl	twiny
65	MIRb	chimeric.fl	twiny
51	MER90a_LTR	chimeric.fl	twiny
46	CarLTR1B1_LTR	chimeric.fl	twiny
39	MLT1B	chimeric.fl	twiny
33	Tigger2f	chimeric.fl	twiny
32	CarLTR8b	chimeric.fl	twiny
31	CarLTR1B2_LTR	chimeric.fl	twiny
27	MLT1C2	chimeric.fl	twiny
25	CarLTR9_LTR	chimeric.fl	twiny
23	Kanga1	chimeric.fl	twiny
22	L1-Y_CF	chimeric.fl	twiny
20	MLT1D	chimeric.fl	twiny
16	MLT1C1	chimeric.fl	twiny
15	L1_Carn2_orf2	chimeric.fl	twiny
14	MER21C	chimeric.fl	twiny
14	CarERV3_LTR	chimeric.fl	twiny
13	CarLTR5_LTR	chimeric.fl	twiny
12	MLT2B4	chimeric.fl	twiny
12	MLT1C	chimeric.fl	twiny
12	L1_CF	chimeric.fl	twiny
11	CHARLIE1	chimeric.fl	twiny
11	CarERV4a1_LTR	chimeric.fl	twiny
10	MLT2F	chimeric.fl	twiny
10	MER68A	chimeric.fl	twiny
9	MER82	chimeric.fl	twiny
9	CfERV1c_LTR	chimeric.fl	twiny
9	CarLTR1A2A_LTR	chimeric.fl	twiny
8	CarERV2b1_LTR	chimeric.fl	twiny
7	MER58B	chimeric.fl	twiny
7	MER34A1	chimeric.fl	twiny
7	MER101_CF	chimeric.fl	twiny
7	LTR51_CF	chimeric.fl	twiny
7	L1MC3	chimeric.fl	twiny
7	Bsp	chimeric.fl	twiny
5	L1MA10	chimeric.fl	twiny
5	CfERVF1_LTR	chimeric.fl	twiny
5	CfERV1	chimeric.fl	twiny
5	Carsat3	chimeric.fl	twiny
5	CarLTR6b	chimeric.fl	twiny
5	CarLTR1A1B_LTR	chimeric.fl	twiny
5	CarLTR1A1A_LTR	chimeric.fl	twiny
5	CarERV2c2_LTR	chimeric.fl	twiny
4	SAT1_CF	chimeric.fl	twiny
4	MER21C_BT	chimeric.fl	twiny
4	L1_Carn5_5end	chimeric.fl	twiny
4	CfERVF2B_LTR	chimeric.fl	twiny
4	CfERV1b_LTR	chimeric.fl	twiny
4	CarLTR11a_LTR	chimeric.fl	twiny
4	CarLTR10_LTR	chimeric.fl	twiny
4	CAN	chimeric.fl	twiny
3	NeoSch-6.5283	chimeric.fl	twiny
3	MLT1F1	chimeric.fl	twiny
3	MER34A	chimeric.fl	twiny
3	LTR35B_CF	chimeric.fl	twiny
3	L1_Carn2_5end	chimeric.fl	twiny
3	Charlie11	chimeric.fl	twiny
3	CarERV4b_LTR	chimeric.fl	twiny
3	CarERV4a_LTR	chimeric.fl	twiny
3	CarERV4a2_LTR	chimeric.fl	twiny
3	CarERV2b2_LTR	chimeric.fl	twiny
2	SSU-rRNA_Hsa	chimeric.fl	twiny
2	ORSL	chimeric.fl	twiny
2	MLT1_I	chimeric.fl	twiny
2	MLT1F_I	chimeric.fl	twiny
2	MLT1E2	chimeric.fl	twiny
2	MER80	chimeric.fl	twiny
2	MER46C	chimeric.fl	twiny
2	L1_Carni_orf2	chimeric.fl	twiny
2	L1_Carn3_5end	chimeric.fl	twiny
2	L1_Carn1_5end	chimeric.fl	twiny
2	CHARLIE1B	chimeric.fl	twiny
2	CfERVF2_LTR	chimeric.fl	twiny
2	CarLTR7	chimeric.fl	twiny
2	CarLTR2_LTR	chimeric.fl	twiny
2	CarERVR1_LTR	chimeric.fl	twiny
2	CarERV2d1_LTR	chimeric.fl	twiny
2	CarERV2a_LTR	chimeric.fl	twiny
1	MST_I	chimeric.fl	twiny
1	MLT-int	chimeric.fl	twiny
1	MLT2B2	chimeric.fl	twiny
1	MLT1F	chimeric.fl	twiny
1	MLT1E	chimeric.fl	twiny
1	MER87_CF	chimeric.fl	twiny
1	MER74A	chimeric.fl	twiny
1	MER58D	chimeric.fl	twiny
1	MER34B_CF	chimeric.fl	twiny
1	MER34A_CF	chimeric.fl	twiny
1	MER31A	chimeric.fl	twiny
1	MER3	chimeric.fl	twiny
1	LTR72B_CF	chimeric.fl	twiny
1	L1MDA_5	chimeric.fl	twiny
1	L1_Canid_5end	chimeric.fl	twiny
1	L1_Canid2_5end	chimeric.fl	twiny
1	CHARLIE1A	chimeric.fl	twiny
1	CarLTR1-int	chimeric.fl	twiny
1	CarLTR1A2B_LTR	chimeric.fl	twiny
1	CarLTR11b_LTR	chimeric.fl	twiny
1	CarERV4c_CF	chimeric.fl	twiny
24	SINEC2A1_CF	non_chimeric.fl	vico
21	LSU-rRNA_Hsa	non_chimeric.fl	vico
2	SINEC1A_CF	non_chimeric.fl	vico
1	Tigger2f	non_chimeric.fl	vico
1	SSU-rRNA_Hsa	non_chimeric.fl	vico
1	SINEC1B2_CF	non_chimeric.fl	vico
1	L1-Y_CF	non_chimeric.fl	vico
1	L1_Carn2_orf2	non_chimeric.fl	vico
139486	SINEC2A1_CF	chimeric.fl	vico
17233	SINEC1B2_CF	chimeric.fl	vico
10991	SINEC1A_CF	chimeric.fl	vico
7627	SINEC1_CF	chimeric.fl	vico
6590	SINEC1C1_CF	chimeric.fl	vico
5360	SINEC1B1_CF	chimeric.fl	vico
1060	SINEC1C2_CF	chimeric.fl	vico
1022	SINEC2A2_CF	chimeric.fl	vico
763	SINEC1D_CF	chimeric.fl	vico
195	CarLTR9_LTR	chimeric.fl	vico
138	CfERV1a_LTR	chimeric.fl	vico
77	MER34C_CF	chimeric.fl	vico
56	MLT1C1	chimeric.fl	vico
50	CfERV1z_LTR	chimeric.fl	vico
47	L1_Carn5_3end	chimeric.fl	vico
37	L1MB7	chimeric.fl	vico
34	MLT1B	chimeric.fl	vico
32	CarLTR8b	chimeric.fl	vico
26	MLT1A0	chimeric.fl	vico
24	Tigger2a_Car	chimeric.fl	vico
23	SINEC_c1	chimeric.fl	vico
21	CarLTR1B1_LTR	chimeric.fl	vico
18	MLT1C2	chimeric.fl	vico
17	Tigger1a_Car	chimeric.fl	vico
12	Tigger2f	chimeric.fl	vico
10	CarERV3_LTR	chimeric.fl	vico
9	MIRb	chimeric.fl	vico
9	L1_CF	chimeric.fl	vico
9	Kanga1	chimeric.fl	vico
8	MER90a_LTR	chimeric.fl	vico
7	CfERV1	chimeric.fl	vico
7	CarLTR1A2A_LTR	chimeric.fl	vico
6	CarLTR1A1B_LTR	chimeric.fl	vico
6	CAN	chimeric.fl	vico
5	MLT2F	chimeric.fl	vico
5	CarLTR1B2_LTR	chimeric.fl	vico
5	CarERV2b1_LTR	chimeric.fl	vico
4	SSU-rRNA_Hsa	chimeric.fl	vico
4	MER34A_CF	chimeric.fl	vico
4	L1-Y_CF	chimeric.fl	vico
4	CfERV1c_LTR	chimeric.fl	vico
4	CarLTR7	chimeric.fl	vico
4	CarLTR11a_LTR	chimeric.fl	vico
4	CarLTR10_LTR	chimeric.fl	vico
3	TIGGER5_B	chimeric.fl	vico
3	MLT2B4	chimeric.fl	vico
3	MLT1F	chimeric.fl	vico
3	MER68A	chimeric.fl	vico
3	L1MC3	chimeric.fl	vico
3	Charlie11	chimeric.fl	vico
3	CfERVF1_LTR	chimeric.fl	vico
3	CarERV2a_LTR	chimeric.fl	vico
2	MLT1C	chimeric.fl	vico
2	MER82	chimeric.fl	vico
2	MER58D	chimeric.fl	vico
2	MER58B	chimeric.fl	vico
2	CfERV1b_LTR	chimeric.fl	vico
2	CarERV2d2_LTR	chimeric.fl	vico
1	SAT1_CF	chimeric.fl	vico
1	NeoSch-6.5283	chimeric.fl	vico
1	MLT1D	chimeric.fl	vico
1	MER63C	chimeric.fl	vico
1	MER47B	chimeric.fl	vico
1	MER34B_CF	chimeric.fl	vico
1	MER34A	chimeric.fl	vico
1	MER31A	chimeric.fl	vico
1	MER3	chimeric.fl	vico
1	MER21C_BT	chimeric.fl	vico
1	MER21C	chimeric.fl	vico
1	LTR51_CF	chimeric.fl	vico
1	L1MA10	chimeric.fl	vico
1	L1_Carn5_5end	chimeric.fl	vico
1	L1_Carn2_5end	chimeric.fl	vico
1	GOLEM	chimeric.fl	vico
1	CHARLIE1B	chimeric.fl	vico
1	CHARLIE1A	chimeric.fl	vico
1	CarLTR5_LTR	chimeric.fl	vico
1	CarLTR1A3_LTR	chimeric.fl	vico
1	CarLTR1A2B_LTR	chimeric.fl	vico
1	CarERVR1_LTR	chimeric.fl	vico
1	CarERV4c_CF	chimeric.fl	vico
1	CarERV4b_LTR	chimeric.fl	vico
1	CarERV4a_LTR	chimeric.fl	vico
1	CarERV4a1_LTR	chimeric.fl	vico
1	CarERV2c2_LTR	chimeric.fl	vico
1	CarERV2c1_LTR	chimeric.fl	vico
