Chr	Start	End	TE Name	Count	Strand	Length on chr	Indicator	Gene ID	Gene Biotype	bear.non_chimeric.fl.tsv
chr11	26788667	26798239	SINEC2A1_CF	1	*	644.0	2	LOC119873904	lncRNA	1
chr17	65081415	65086067	LSU-rRNA_Hsa	1	*	494.0	1	LOC119877202	rRNA	1
chr2	57191689	57192668	L1_CF	1	*	945.0	3	None	None	1
chr2	2447847	2450068	L1_Carn3_5end	1	*	2120.0	3	PARD3	protein_coding	1
chr26	38492559	38494178	SINEC1B2_CF	1	*	754.0	6	RNLS	protein_coding	1
chr3	73859027	73862294	L1_Carn2_orf2	1	*	3240.0	1	LOC111095295	lncRNA	1
chr33	31151773	31151956	SINEC2A1_CF	1	*	182.0	1	LOC119867276	protein_coding	1
chr38	22763070	22763255	SINEC2A1_CF	1	*	184.0	3	COPA	protein_coding	1
chr4	51222714	51224606	Charlie11	1	*	1878.0	1	ZBED8	protein_coding	1
chr7	69335233	69335848	L1_CF	1	*	591.0	2	NDC80	protein_coding	1
chr9	34148524	34150145	L1_CF	1	*	1608.0	2	CLTC	protein_coding	1
chrUn_JAAHUQ010000730v1	15823	17611	SSU-rRNA_Hsa	1	*	1762.0	1	LOC119878256	rRNA	1
chrX	89182720	89229712	SINEC2A1_CF	2	*	407.5	6	LOC119878122	protein_coding	2
