Chr	Start	End	TE Name	Count	Strand	Length on chr	Indicator	Gene ID	Gene Biotype	samy.non_chimeric.fl.tsv
chr1	99903860	99904254	CfERVF1_LTR	1	*	364.0	1	LOC106559551	lncRNA	1
chr1	95632532	95632716	SINEC2A1_CF	1	*	179.0	2	LOC484191	protein_coding	1
chr1	104407286	104407683	CfERVF2_LTR	1	*	383.0	1	LOC119875917	protein_coding	1
chr13	2410270	2410448	SINEC2A1_CF	1	*	160.0	1	LOC111098492	lncRNA	1
chr15	19630436	19630769	CfERV1z_LTR	1	*	316.0	1	LOC102155141	lncRNA	1
chr15	22295098	22295917	L1_Carn5_3end	1	*	758.0	1	None	None	1
chr15	4081378	4081726	CfERVF1_LTR	1	*	292.0	1	LOC102151386	lncRNA	1
chr16	10276558	10276753	SINEC2A1_CF	1	*	185.0	3	LOC119875870	misc_RNA	1
chr17	31316058	31316244	SINEC2A1_CF	1	*	182.0	3	None	None	1
chr18	37588809	37588982	SINEC1B2_CF	1	*	166.0	1	None	None	1
chr19	42728514	42728699	SINEC2A1_CF	1	*	173.0	2	None	None	1
chr2	43368416	43368619	SINEC2A1_CF	1	*	185.0	1	None	None	1
chr28	22660976	22661144	SINEC2A1_CF	1	*	122.0	2	None	None	1
chr29	34082165	34082358	SINEC2A1_CF	1	*	183.0	1	CNBD1	protein_coding	1
chr29	27878086	27878272	SINEC2A1_CF	1	*	174.0	1	None	None	1
chr3	33318458	33318621	SINEC2A1_CF	1	*	134.0	6	GABRG3	protein_coding	1
chr36	15602364	15602801	CfERVF1_LTR	3	*	404.0	1	None	None	3
chr37	25467211	25467402	SINEC2A1_CF	1	*	179.0	1	CFAP65	protein_coding	1
chr38	2000939	2001111	SINEC2A1_CF	1	*	163.0	1	NFASC	protein_coding	1
chr4	10425690	10425842	SINEC1B2_CF	1	*	143.0	1	LOC106558668	lncRNA	1
chr5	29966562	29966742	SINEC2A1_CF	1	*	168.0	1	None	None	1
chr6	24292958	24293417	L1-Y_CF	1	*	333.0	2	LOC489979	protein_coding	1
chr6	24272413	24294093	L1-Y_CF	2	*	776.0	1	LOC489979	protein_coding	2
chr6	12187423	12187602	SINEC2A1_CF	1	*	171.0	1	None	None	1
chr6	48375053	48375414	CfERVF1_LTR	3	*	328.0	1	None	None	3
chr7	37441266	37441707	CfERV1a_LTR	2	*	412.5	1	None	None	2
chr7	71553942	71554267	CfERV1b_LTR	1	*	306.0	1	None	None	1
chr8	13604603	13604895	CfERV1z_LTR	1	*	277.0	1	None	None	1
chr8	31233261	31233715	CfERV1a_LTR	1	*	446.0	1	None	None	1
chrUn_JAAHUQ010002228v1	30537	30706	SINEC2A1_CF	1	*	157.0	1	LOC119879251	pseudogene	1
chrUn_JAAHUQ010002599v1	11198	11383	SINEC2A1_CF	1	*	175.0	3	None	None	1
chrUn_JAAHUQ010002692v1	32444	32606	SINEC2A1_CF	1	*	120.0	3	None	None	1
chrUn_MU018705v1	68776	68940	SINEC2A1_CF	1	*	156.0	1	None	None	1
